Chapter 19 ARIMA | Quantitative Agricultural Economics
…
Region: the region of Australia where the observation was made.

State: the state of Australia where the observation was made.

Purpose: the purpose of the visit (e.g., holiday, business, etc.)

Trips: the number of trips made by tourists to that region in that quarter.

tourism_Alice <- tourism %>%
  dplyr::filter(Region == "Alice Springs")

tourism_Alice %>%
  group_by(Purpose)

## # A tsibble: 320 x 5 [1Q]
## # Key:       Region, State, Purpose [4]
## # Groups:    Purpose [4]
##    Quarter Region        State              Purpose  Trips
##      <qtr> <chr>         <chr>              <chr>    <dbl>
##  1 1998 Q1 Alice Springs Northern Territory Business  7.54
##  2 1998 Q2 Alice Springs Northern Territory Business  3.36
##  3 1998 Q3 Alice Springs Northern Territory Business 21.8 
##  4 1998 Q4 Alice Springs Northern Territory Business  3.98
##  5 1999 Q1 Alice Springs Northern Territory Business 18.4 
##  6 1999 Q2 Alice Springs Northern Territory Business 16.4 
##  7 1999 Q3 Alice Springs Northern Territory Business  8.65
##  8 1999 Q4 Alice Springs Northern Territory Business 15.9 
##  9 2000 Q1 Alice Springs Northern Territory Business  4.88
## 10 2000 Q2 Alice Springs Northern Territory Business 11.2 
## # ℹ 310 more rows
…
