Chapter 14 Boxplots | Quantitative Agricultural Economics
…
df=as.tibble(c(1,8:10, 100:120, 125:135,150:160, 800, 1000))
df

## # A tibble: 49 × 1
##    value
##    <dbl>
##  1     1
##  2     8
##  3     9
##  4    10
##  5   100
##  6   101
##  7   102
##  8   103
##  9   104
## 10   105
## # ℹ 39 more rows
…
