Chapter 15 Teoretical boxplot | Quantitative Agricultural Economics
…
Chapter 15 Teoretical boxplot

df=as.tibble(c(1,8:10, 100:120, 125:135,150:160, 800, 1000))

## Warning: `as.tibble()` was deprecated in tibble 2.0.0.
## ℹ Please use `as_tibble()` instead.
## ℹ The signature and semantics have changed, see `?as_tibble`.
## This warning is displayed once every 8 hours.
## Call `lifecycle::last_lifecycle_warnings()` to see where this warning was
## generated.

df

## # A tibble: 49 × 1
##    value
##    <dbl>
##  1     1
##  2     8
##  3     9
##  4    10
##  5   100
##  6   101
##  7   102
##  8   103
##  9   104
## 10   105
## # ℹ 39 more rows
…
