Chapter 18 Un cambio para modificar los gráficos | Quantitative Agricultural Economics
…
Primero vamos a convertir los datos en proporción ya que el programa tiene que utilizar datos mayor de 0 y menor de 1. Seleccionamos el año 2000 y creamos un histograma de la distribución.

Smokers$Y2000P=(Smokers$Y2000)/100 # convertir en proporción
Smokers %>% dplyr::select(Country_Name, Y2000P)

## # A tibble: 187 × 2
##    Country_Name Y2000P
##    <chr>         <dbl>
##  1 Honduras      0.039
##  2 Ethiopia      0.048
##  3 Congo, Rep.   0.057
##  4 Ghana         0.059
##  5 Niger         0.064
##  6 Nigeria       0.077
##  7 Oman          0.082
##  8 Barbados      0.083
##  9 Eritrea       0.087
## 10 Benin         0.091
## # ℹ 177 more rows
…
