Chapter 18 Visualización de la distribución | Quantitative Agricultural Economics
…
dp2$quantile_.45=predict(modelpropFr, type = "quantile", at = c(0.45))
dp2$quantile_.50=predict(modelpropFr, type = "quantile", at = c(0.50))
dp2$quantile_.55=predict(modelpropFr, type = "quantile", at = c(0.55))
dp2$quantile_.60=predict(modelpropFr, type = "quantile", at = c(0.60))
dp2$quantile_.65=predict(modelpropFr, type = "quantile", at = c(0.65))
dp2$quantile_.70=predict(modelpropFr, type = "quantile", at = c(0.70))
dp2$quantile_.75=predict(modelpropFr, type = "quantile", at = c(0.75))
dp2$quantile_.80=predict(modelpropFr, type = "quantile", at = c(0.80))
dp2$quantile_.85=predict(modelpropFr, type = "quantile", at = c(0.85))
dp2$quantile_.90=predict(modelpropFr, type = "quantile", at = c(0.90))
dp2$quantile_.95=predict(modelpropFr, type = "quantile", at = c(0.95))
dp2$quantile_.99=predict(modelpropFr, type = "quantile", at = c(0.99))
dp2

## # A tibble: 62 × 26
##    Number_of_Flowers PropFR response precision variance quantile_.01
##                <dbl>  <dbl>    <dbl>     <dbl>    <dbl>        <dbl>
##  1                 3 0.0001   0.0257      4.69  0.00439     3.86e-18
##  2                 4 0.0001   0.0278      4.69  0.00475     7.44e-17
##  3                 5 0.0001   0.0302      4.69  0.00514     1.14e-15
##  4                11 0.0001   0.0486      4.69  0.00811     2.75e-10
##  5                13 0.0358   0.0568      4.69  0.00941     5.29e- 9
##  6                13 0.0938   0.0568      4.69  0.00941     5.29e- 9
##  7                13 0.0001   0.0568      4.69  0.00941     5.29e- 9
##  8                14 0.0001   0.0614      4.69  0.0101      1.96e- 8
##  9                14 0.364    0.0614      4.69  0.0101      1.96e- 8
## 10                14 0.105    0.0614      4.69  0.0101      1.96e- 8
## # ℹ 52 more rows
## # ℹ 20 more variables: quantile_.05 <dbl>, quantile_.10 <dbl>,
## #   quantile_.15 <dbl>, quantile_.20 <dbl>, quantile_.25 <dbl>,
## #   quantile_.30 <dbl>, quantile_.35 <dbl>, quantile_.40 <dbl>,
## #   quantile_.45 <dbl>, quantile_.50 <dbl>, quantile_.55 <dbl>,
## #   quantile_.60 <dbl>, quantile_.65 <dbl>, quantile_.70 <dbl>,
## #   quantile_.75 <dbl>, quantile_.80 <dbl>, quantile_.85 <dbl>, …
…
